
---------------------------------------------------------------------

Model checking: filter(printall, P=? [ F<=k "accept" ])
Property constants: k=1

Building model...

Warning: Update 1 of command 1 of module "monitor" doesn't do anything ("(s'=5)", line 6, column 19)

Warning: Update 1 of command 2 of module "monitor" doesn't do anything ("(s'=5)", line 7, column 19)

Warning: Update 2 of command 5 of module "monitor" doesn't do anything ("(s'=5)", line 10, column 37)

Warning: Update 2 of command 6 of module "monitor" doesn't do anything ("(s'=5)", line 11, column 37)

Computing reachable states...

Reachability (BFS): 3 iterations in 0.00 seconds (average 0.000000, setup 0.00)

Time for model construction: 0.0 seconds.

Type:        DTMC
States:      3 (1 initial)
Transitions: 4

Transition matrix: 23 nodes (4 terminal), 4 minterms, vars: 3r/3c

Prob0: 2 iterations in 0.00 seconds (average 0.000000, setup 0.00)

yes = 2, no = 0, maybe = 1

Computing probabilities...
Engine: Hybrid

Building hybrid MTBDD matrix... [levels=3, nodes=13] [0.6 KB]
Adding explicit sparse matrices... [levels=3, num=1, compact] [0.0 KB]
Creating vector for yes... [dist=2, compact] [0.0 KB]
Allocating iteration vectors... [2 x 0.0 KB]
TOTAL: [0.7 KB]

Starting iterations...

Iterative method: 1 iterations in 0.00 seconds (average 0.001000, setup 0.00)

States satisfying filter true: 3

Results (including zeros) for filter true:
0:(1)=1.0
1:(3)=1.0
2:(6)=0.073019

Value in the initial state: 1.0

Time for model checking: 0.001 seconds.

Result: 1.0 (value in the initial state)

---------------------------------------------------------------------

Model checking: filter(printall, P=? [ F<=k "accept" ])
Property constants: k=2

Prob0: 2 iterations in 0.00 seconds (average 0.000000, setup 0.00)

yes = 2, no = 0, maybe = 1

Computing probabilities...
Engine: Hybrid

Building hybrid MTBDD matrix... [levels=3, nodes=13] [0.6 KB]
Adding explicit sparse matrices... [levels=3, num=1, compact] [0.0 KB]
Creating vector for yes... [dist=2, compact] [0.0 KB]
Allocating iteration vectors... [2 x 0.0 KB]
TOTAL: [0.7 KB]

Starting iterations...

Iterative method: 2 iterations in 0.00 seconds (average 0.000000, setup 0.00)

States satisfying filter true: 3

Results (including zeros) for filter true:
0:(1)=1.0
1:(3)=1.0
2:(6)=0.140706225639

Value in the initial state: 1.0

Time for model checking: 0.0 seconds.

Result: 1.0 (value in the initial state)

---------------------------------------------------------------------

Model checking: filter(printall, P=? [ F<=k "accept" ])
Property constants: k=3

Prob0: 2 iterations in 0.00 seconds (average 0.000000, setup 0.00)

yes = 2, no = 0, maybe = 1

Computing probabilities...
Engine: Hybrid

Building hybrid MTBDD matrix... [levels=3, nodes=13] [0.6 KB]
Adding explicit sparse matrices... [levels=3, num=1, compact] [0.0 KB]
Creating vector for yes... [dist=2, compact] [0.0 KB]
Allocating iteration vectors... [2 x 0.0 KB]
TOTAL: [0.7 KB]

Starting iterations...

Iterative method: 3 iterations in 0.00 seconds (average 0.000000, setup 0.00)

States satisfying filter true: 3

Results (including zeros) for filter true:
0:(1)=1.0
1:(3)=1.0
2:(6)=0.2034509977490659

Value in the initial state: 1.0

Time for model checking: 0.001 seconds.

Result: 1.0 (value in the initial state)

---------------------------------------------------------------------

Model checking: filter(printall, P=? [ F<=k "accept" ])
Property constants: k=4

Prob0: 2 iterations in 0.00 seconds (average 0.000000, setup 0.00)

yes = 2, no = 0, maybe = 1

Computing probabilities...
Engine: Hybrid

Building hybrid MTBDD matrix... [levels=3, nodes=13] [0.6 KB]
Adding explicit sparse matrices... [levels=3, num=1, compact] [0.0 KB]
Creating vector for yes... [dist=2, compact] [0.0 KB]
Allocating iteration vectors... [2 x 0.0 KB]
TOTAL: [0.7 KB]

Starting iterations...

Iterative method: 4 iterations in 0.00 seconds (average 0.000000, setup 0.00)

States satisfying filter true: 3

Results (including zeros) for filter true:
0:(1)=1.0
1:(3)=1.0
2:(6)=0.26161420934442686

Value in the initial state: 1.0

Time for model checking: 0.0 seconds.

Result: 1.0 (value in the initial state)

---------------------------------------------------------------------

Model checking: filter(printall, P=? [ F<=k "accept" ])
Property constants: k=5

Prob0: 2 iterations in 0.00 seconds (average 0.000000, setup 0.00)

yes = 2, no = 0, maybe = 1

Computing probabilities...
Engine: Hybrid

Building hybrid MTBDD matrix... [levels=3, nodes=13] [0.6 KB]
Adding explicit sparse matrices... [levels=3, num=1, compact] [0.0 KB]
Creating vector for yes... [dist=2, compact] [0.0 KB]
Allocating iteration vectors... [2 x 0.0 KB]
TOTAL: [0.7 KB]

Starting iterations...

Iterative method: 5 iterations in 0.00 seconds (average 0.000000, setup 0.00)

States satisfying filter true: 3

Results (including zeros) for filter true:
0:(1)=1.0
1:(3)=1.0
2:(6)=0.31553040139230615

Value in the initial state: 1.0

Time for model checking: 0.001 seconds.

Result: 1.0 (value in the initial state)

---------------------------------------------------------------------

Model checking: filter(printall, P=? [ F<=k "accept" ])
Property constants: k=6

Prob0: 2 iterations in 0.00 seconds (average 0.000000, setup 0.00)

yes = 2, no = 0, maybe = 1

Computing probabilities...
Engine: Hybrid

Building hybrid MTBDD matrix... [levels=3, nodes=13] [0.6 KB]
Adding explicit sparse matrices... [levels=3, num=1, compact] [0.0 KB]
Creating vector for yes... [dist=2, compact] [0.0 KB]
Allocating iteration vectors... [2 x 0.0 KB]
TOTAL: [0.7 KB]

Starting iterations...

Iterative method: 6 iterations in 0.00 seconds (average 0.000000, setup 0.00)

States satisfying filter true: 3

Results (including zeros) for filter true:
0:(1)=1.0
1:(3)=1.0
2:(6)=0.3655096870130414

Value in the initial state: 1.0

Time for model checking: 0.0 seconds.

Result: 1.0 (value in the initial state)

---------------------------------------------------------------------

Model checking: filter(printall, P=? [ F<=k "accept" ])
Property constants: k=7

Prob0: 2 iterations in 0.00 seconds (average 0.000000, setup 0.00)

yes = 2, no = 0, maybe = 1

Computing probabilities...
Engine: Hybrid

Building hybrid MTBDD matrix... [levels=3, nodes=13] [0.6 KB]
Adding explicit sparse matrices... [levels=3, num=1, compact] [0.0 KB]
Creating vector for yes... [dist=2, compact] [0.0 KB]
Allocating iteration vectors... [2 x 0.0 KB]
TOTAL: [0.7 KB]

Starting iterations...

Iterative method: 7 iterations in 0.00 seconds (average 0.000000, setup 0.00)

States satisfying filter true: 3

Results (including zeros) for filter true:
0:(1)=1.0
1:(3)=1.0
2:(6)=0.41183953517703614

Value in the initial state: 1.0

Time for model checking: 0.0 seconds.

Result: 1.0 (value in the initial state)

---------------------------------------------------------------------

Model checking: filter(printall, P=? [ F<=k "accept" ])
Property constants: k=8

Prob0: 2 iterations in 0.00 seconds (average 0.000000, setup 0.00)

yes = 2, no = 0, maybe = 1

Computing probabilities...
Engine: Hybrid

Building hybrid MTBDD matrix... [levels=3, nodes=13] [0.6 KB]
Adding explicit sparse matrices... [levels=3, num=1, compact] [0.0 KB]
Creating vector for yes... [dist=2, compact] [0.0 KB]
Allocating iteration vectors... [2 x 0.0 KB]
TOTAL: [0.7 KB]

Starting iterations...

Iterative method: 8 iterations in 0.00 seconds (average 0.000000, setup 0.00)

States satisfying filter true: 3

Results (including zeros) for filter true:
0:(1)=1.0
1:(3)=1.0
2:(6)=0.4547864241579442

Value in the initial state: 1.0

Time for model checking: 0.001 seconds.

Result: 1.0 (value in the initial state)

---------------------------------------------------------------------

Model checking: filter(printall, P=? [ F<=k "accept" ])
Property constants: k=9

Prob0: 2 iterations in 0.00 seconds (average 0.000000, setup 0.00)

yes = 2, no = 0, maybe = 1

Computing probabilities...
Engine: Hybrid

Building hybrid MTBDD matrix... [levels=3, nodes=13] [0.6 KB]
Adding explicit sparse matrices... [levels=3, num=1, compact] [0.0 KB]
Creating vector for yes... [dist=2, compact] [0.0 KB]
Allocating iteration vectors... [2 x 0.0 KB]
TOTAL: [0.7 KB]

Starting iterations...

Iterative method: 9 iterations in 0.00 seconds (average 0.000000, setup 0.00)

States satisfying filter true: 3

Results (including zeros) for filter true:
0:(1)=1.0
1:(3)=1.0
2:(6)=0.4945973742523553

Value in the initial state: 1.0

Time for model checking: 0.0 seconds.

Result: 1.0 (value in the initial state)

---------------------------------------------------------------------

Model checking: filter(printall, P=? [ F<=k "accept" ])
Property constants: k=10

Prob0: 2 iterations in 0.00 seconds (average 0.000000, setup 0.00)

yes = 2, no = 0, maybe = 1

Computing probabilities...
Engine: Hybrid

Building hybrid MTBDD matrix... [levels=3, nodes=13] [0.6 KB]
Adding explicit sparse matrices... [levels=3, num=1, compact] [0.0 KB]
Creating vector for yes... [dist=2, compact] [0.0 KB]
Allocating iteration vectors... [2 x 0.0 KB]
TOTAL: [0.7 KB]

Starting iterations...

Iterative method: 10 iterations in 0.00 seconds (average 0.000000, setup 0.00)

States satisfying filter true: 3

Results (including zeros) for filter true:
0:(1)=1.0
1:(3)=1.0
2:(6)=0.5315013685818226

Value in the initial state: 1.0

Time for model checking: 0.0 seconds.

Result: 1.0 (value in the initial state)

---------------------------------------------------------------------

Model checking: filter(printall, P=? [ F<=k "accept" ])
Property constants: k=11

Prob0: 2 iterations in 0.00 seconds (average 0.000000, setup 0.00)

yes = 2, no = 0, maybe = 1

Computing probabilities...
Engine: Hybrid

Building hybrid MTBDD matrix... [levels=3, nodes=13] [0.6 KB]
Adding explicit sparse matrices... [levels=3, num=1, compact] [0.0 KB]
Creating vector for yes... [dist=2, compact] [0.0 KB]
Allocating iteration vectors... [2 x 0.0 KB]
TOTAL: [0.7 KB]

Starting iterations...

Iterative method: 11 iterations in 0.00 seconds (average 0.000000, setup 0.00)

States satisfying filter true: 3

Results (including zeros) for filter true:
0:(1)=1.0
1:(3)=1.0
2:(6)=0.5657106701493466

Value in the initial state: 1.0

Time for model checking: 0.0 seconds.

Result: 1.0 (value in the initial state)

---------------------------------------------------------------------

Model checking: filter(printall, P=? [ F<=k "accept" ])
Property constants: k=12

Prob0: 2 iterations in 0.00 seconds (average 0.000000, setup 0.00)

yes = 2, no = 0, maybe = 1

Computing probabilities...
Engine: Hybrid

Building hybrid MTBDD matrix... [levels=3, nodes=13] [0.6 KB]
Adding explicit sparse matrices... [levels=3, num=1, compact] [0.0 KB]
Creating vector for yes... [dist=2, compact] [0.0 KB]
Allocating iteration vectors... [2 x 0.0 KB]
TOTAL: [0.7 KB]

Starting iterations...

Iterative method: 12 iterations in 0.00 seconds (average 0.000000, setup 0.00)

States satisfying filter true: 3

Results (including zeros) for filter true:
0:(1)=1.0
1:(3)=1.0
2:(6)=0.5974220427257115

Value in the initial state: 1.0

Time for model checking: 0.0 seconds.

Result: 1.0 (value in the initial state)

---------------------------------------------------------------------

Model checking: filter(printall, P=? [ F<=k "accept" ])
Property constants: k=13

Prob0: 2 iterations in 0.00 seconds (average 0.000000, setup 0.00)

yes = 2, no = 0, maybe = 1

Computing probabilities...
Engine: Hybrid

Building hybrid MTBDD matrix... [levels=3, nodes=13] [0.6 KB]
Adding explicit sparse matrices... [levels=3, num=1, compact] [0.0 KB]
Creating vector for yes... [dist=2, compact] [0.0 KB]
Allocating iteration vectors... [2 x 0.0 KB]
TOTAL: [0.7 KB]

Starting iterations...

Iterative method: 13 iterations in 0.00 seconds (average 0.000000, setup 0.00)

States satisfying filter true: 3

Results (including zeros) for filter true:
0:(1)=1.0
1:(3)=1.0
2:(6)=0.6268178825879229

Value in the initial state: 1.0

Time for model checking: 0.001 seconds.

Result: 1.0 (value in the initial state)

---------------------------------------------------------------------

Model checking: filter(printall, P=? [ F<=k "accept" ])
Property constants: k=14

Prob0: 2 iterations in 0.00 seconds (average 0.000000, setup 0.00)

yes = 2, no = 0, maybe = 1

Computing probabilities...
Engine: Hybrid

Building hybrid MTBDD matrix... [levels=3, nodes=13] [0.6 KB]
Adding explicit sparse matrices... [levels=3, num=1, compact] [0.0 KB]
Creating vector for yes... [dist=2, compact] [0.0 KB]
Allocating iteration vectors... [2 x 0.0 KB]
TOTAL: [0.7 KB]

Starting iterations...

Iterative method: 14 iterations in 0.00 seconds (average 0.000000, setup 0.00)

States satisfying filter true: 3

Results (including zeros) for filter true:
0:(1)=1.0
1:(3)=1.0
2:(6)=0.6540672676192354

Value in the initial state: 1.0

Time for model checking: 0.0 seconds.

Result: 1.0 (value in the initial state)

---------------------------------------------------------------------

Model checking: filter(printall, P=? [ F<=k "accept" ])
Property constants: k=15

Prob0: 2 iterations in 0.00 seconds (average 0.000000, setup 0.00)

yes = 2, no = 0, maybe = 1

Computing probabilities...
Engine: Hybrid

Building hybrid MTBDD matrix... [levels=3, nodes=13] [0.6 KB]
Adding explicit sparse matrices... [levels=3, num=1, compact] [0.0 KB]
Creating vector for yes... [dist=2, compact] [0.0 KB]
Allocating iteration vectors... [2 x 0.0 KB]
TOTAL: [0.7 KB]

Starting iterations...

Iterative method: 15 iterations in 0.00 seconds (average 0.000000, setup 0.00)

States satisfying filter true: 3

Results (including zeros) for filter true:
0:(1)=1.0
1:(3)=1.0
2:(6)=0.6793269298049465

Value in the initial state: 1.0

Time for model checking: 0.001 seconds.

Result: 1.0 (value in the initial state)

---------------------------------------------------------------------

Model checking: filter(printall, P=? [ F<=k "accept" ])
Property constants: k=16

Prob0: 2 iterations in 0.00 seconds (average 0.000000, setup 0.00)

yes = 2, no = 0, maybe = 1

Computing probabilities...
Engine: Hybrid

Building hybrid MTBDD matrix... [levels=3, nodes=13] [0.6 KB]
Adding explicit sparse matrices... [levels=3, num=1, compact] [0.0 KB]
Creating vector for yes... [dist=2, compact] [0.0 KB]
Allocating iteration vectors... [2 x 0.0 KB]
TOTAL: [0.7 KB]

Starting iterations...

Iterative method: 16 iterations in 0.00 seconds (average 0.000000, setup 0.00)

States satisfying filter true: 3

Results (including zeros) for filter true:
0:(1)=1.0
1:(3)=1.0
2:(6)=0.7027421567175192

Value in the initial state: 1.0

Time for model checking: 0.0 seconds.

Result: 1.0 (value in the initial state)

---------------------------------------------------------------------

Model checking: filter(printall, P=? [ F<=k "accept" ])
Property constants: k=17

Prob0: 2 iterations in 0.00 seconds (average 0.000000, setup 0.00)

yes = 2, no = 0, maybe = 1

Computing probabilities...
Engine: Hybrid

Building hybrid MTBDD matrix... [levels=3, nodes=13] [0.6 KB]
Adding explicit sparse matrices... [levels=3, num=1, compact] [0.0 KB]
Creating vector for yes... [dist=2, compact] [0.0 KB]
Allocating iteration vectors... [2 x 0.0 KB]
TOTAL: [0.7 KB]

Starting iterations...

Iterative method: 17 iterations in 0.00 seconds (average 0.000000, setup 0.00)

States satisfying filter true: 3

Results (including zeros) for filter true:
0:(1)=1.0
1:(3)=1.0
2:(6)=0.7244476271761626

Value in the initial state: 1.0

Time for model checking: 0.001 seconds.

Result: 1.0 (value in the initial state)

---------------------------------------------------------------------

Model checking: filter(printall, P=? [ F<=k "accept" ])
Property constants: k=18

Prob0: 2 iterations in 0.00 seconds (average 0.000000, setup 0.00)

yes = 2, no = 0, maybe = 1

Computing probabilities...
Engine: Hybrid

Building hybrid MTBDD matrix... [levels=3, nodes=13] [0.6 KB]
Adding explicit sparse matrices... [levels=3, num=1, compact] [0.0 KB]
Creating vector for yes... [dist=2, compact] [0.0 KB]
Allocating iteration vectors... [2 x 0.0 KB]
TOTAL: [0.7 KB]

Starting iterations...

Iterative method: 18 iterations in 0.00 seconds (average 0.000000, setup 0.00)

States satisfying filter true: 3

Results (including zeros) for filter true:
0:(1)=1.0
1:(3)=1.0
2:(6)=0.7445681858873865

Value in the initial state: 1.0

Time for model checking: 0.001 seconds.

Result: 1.0 (value in the initial state)

---------------------------------------------------------------------

Model checking: filter(printall, P=? [ F<=k "accept" ])
Property constants: k=19

Prob0: 2 iterations in 0.00 seconds (average 0.000000, setup 0.00)

yes = 2, no = 0, maybe = 1

Computing probabilities...
Engine: Hybrid

Building hybrid MTBDD matrix... [levels=3, nodes=13] [0.6 KB]
Adding explicit sparse matrices... [levels=3, num=1, compact] [0.0 KB]
Creating vector for yes... [dist=2, compact] [0.0 KB]
Allocating iteration vectors... [2 x 0.0 KB]
TOTAL: [0.7 KB]

Starting iterations...

Iterative method: 19 iterations in 0.00 seconds (average 0.000000, setup 0.00)

States satisfying filter true: 3

Results (including zeros) for filter true:
0:(1)=1.0
1:(3)=1.0
2:(6)=0.7632195615220754

Value in the initial state: 1.0

Time for model checking: 0.0 seconds.

Result: 1.0 (value in the initial state)

---------------------------------------------------------------------

Model checking: filter(printall, P=? [ F<=k "accept" ])
Property constants: k=20

Prob0: 2 iterations in 0.00 seconds (average 0.000500, setup 0.00)

yes = 2, no = 0, maybe = 1

Computing probabilities...
Engine: Hybrid

Building hybrid MTBDD matrix... [levels=3, nodes=13] [0.6 KB]
Adding explicit sparse matrices... [levels=3, num=1, compact] [0.0 KB]
Creating vector for yes... [dist=2, compact] [0.0 KB]
Allocating iteration vectors... [2 x 0.0 KB]
TOTAL: [0.7 KB]

Starting iterations...

Iterative method: 20 iterations in 0.00 seconds (average 0.000000, setup 0.00)

States satisfying filter true: 3

Results (including zeros) for filter true:
0:(1)=1.0
1:(3)=1.0
2:(6)=0.7805090323592949

Value in the initial state: 1.0

Time for model checking: 0.001 seconds.

Result: 1.0 (value in the initial state)

---------------------------------------------------------------------

Model checking: filter(printall, P=? [ F<=k "accept" ])
Property constants: k=21

Prob0: 2 iterations in 0.00 seconds (average 0.000500, setup 0.00)

yes = 2, no = 0, maybe = 1

Computing probabilities...
Engine: Hybrid

Building hybrid MTBDD matrix... [levels=3, nodes=13] [0.6 KB]
Adding explicit sparse matrices... [levels=3, num=1, compact] [0.0 KB]
Creating vector for yes... [dist=2, compact] [0.0 KB]
Allocating iteration vectors... [2 x 0.0 KB]
TOTAL: [0.7 KB]

Starting iterations...

Iterative method: 21 iterations in 0.00 seconds (average 0.000000, setup 0.00)

States satisfying filter true: 3

Results (including zeros) for filter true:
0:(1)=1.0
1:(3)=1.0
2:(6)=0.7965360433254516

Value in the initial state: 1.0

Time for model checking: 0.0 seconds.

Result: 1.0 (value in the initial state)

---------------------------------------------------------------------

Model checking: filter(printall, P=? [ F<=k "accept" ])
Property constants: k=22

Prob0: 2 iterations in 0.00 seconds (average 0.000000, setup 0.00)

yes = 2, no = 0, maybe = 1

Computing probabilities...
Engine: Hybrid

Building hybrid MTBDD matrix... [levels=3, nodes=13] [0.6 KB]
Adding explicit sparse matrices... [levels=3, num=1, compact] [0.0 KB]
Creating vector for yes... [dist=2, compact] [0.0 KB]
Allocating iteration vectors... [2 x 0.0 KB]
TOTAL: [0.7 KB]

Starting iterations...

Iterative method: 22 iterations in 0.00 seconds (average 0.000000, setup 0.00)

States satisfying filter true: 3

Results (including zeros) for filter true:
0:(1)=1.0
1:(3)=1.0
2:(6)=0.8113927779778705

Value in the initial state: 1.0

Time for model checking: 0.0 seconds.

Result: 1.0 (value in the initial state)

---------------------------------------------------------------------

Model checking: filter(printall, P=? [ F<=k "accept" ])
Property constants: k=23

Prob0: 2 iterations in 0.00 seconds (average 0.000000, setup 0.00)

yes = 2, no = 0, maybe = 1

Computing probabilities...
Engine: Hybrid

Building hybrid MTBDD matrix... [levels=3, nodes=13] [0.6 KB]
Adding explicit sparse matrices... [levels=3, num=1, compact] [0.0 KB]
Creating vector for yes... [dist=2, compact] [0.0 KB]
Allocating iteration vectors... [2 x 0.0 KB]
TOTAL: [0.7 KB]

Starting iterations...

Iterative method: 23 iterations in 0.00 seconds (average 0.000000, setup 0.00)

States satisfying filter true: 3

Results (including zeros) for filter true:
0:(1)=1.0
1:(3)=1.0
2:(6)=0.8251646887227044

Value in the initial state: 1.0

Time for model checking: 0.0 seconds.

Result: 1.0 (value in the initial state)

---------------------------------------------------------------------

Model checking: filter(printall, P=? [ F<=k "accept" ])
Property constants: k=24

Prob0: 2 iterations in 0.00 seconds (average 0.000000, setup 0.00)

yes = 2, no = 0, maybe = 1

Computing probabilities...
Engine: Hybrid

Building hybrid MTBDD matrix... [levels=3, nodes=13] [0.6 KB]
Adding explicit sparse matrices... [levels=3, num=1, compact] [0.0 KB]
Creating vector for yes... [dist=2, compact] [0.0 KB]
Allocating iteration vectors... [2 x 0.0 KB]
TOTAL: [0.7 KB]

Starting iterations...

Iterative method: 24 iterations in 0.00 seconds (average 0.000000, setup 0.00)

States satisfying filter true: 3

Results (including zeros) for filter true:
0:(1)=1.0
1:(3)=1.0
2:(6)=0.8379309883168613

Value in the initial state: 1.0

Time for model checking: 0.001 seconds.

Result: 1.0 (value in the initial state)

---------------------------------------------------------------------

Model checking: filter(printall, P=? [ F<=k "accept" ])
Property constants: k=25

Prob0: 2 iterations in 0.00 seconds (average 0.000000, setup 0.00)

yes = 2, no = 0, maybe = 1

Computing probabilities...
Engine: Hybrid

Building hybrid MTBDD matrix... [levels=3, nodes=13] [0.6 KB]
Adding explicit sparse matrices... [levels=3, num=1, compact] [0.0 KB]
Creating vector for yes... [dist=2, compact] [0.0 KB]
Allocating iteration vectors... [2 x 0.0 KB]
TOTAL: [0.7 KB]

Starting iterations...

Iterative method: 25 iterations in 0.00 seconds (average 0.000000, setup 0.00)

States satisfying filter true: 3

Results (including zeros) for filter true:
0:(1)=1.0
1:(3)=1.0
2:(6)=0.8497651054809525

Value in the initial state: 1.0

Time for model checking: 0.001 seconds.

Result: 1.0 (value in the initial state)

---------------------------------------------------------------------

Model checking: filter(printall, P=? [ F<=k "accept" ])
Property constants: k=26

Prob0: 2 iterations in 0.00 seconds (average 0.000000, setup 0.00)

yes = 2, no = 0, maybe = 1

Computing probabilities...
Engine: Hybrid

Building hybrid MTBDD matrix... [levels=3, nodes=13] [0.6 KB]
Adding explicit sparse matrices... [levels=3, num=1, compact] [0.0 KB]
Creating vector for yes... [dist=2, compact] [0.0 KB]
Allocating iteration vectors... [2 x 0.0 KB]
TOTAL: [0.7 KB]

Starting iterations...

Iterative method: 26 iterations in 0.00 seconds (average 0.000000, setup 0.00)

States satisfying filter true: 3

Results (including zeros) for filter true:
0:(1)=1.0
1:(3)=1.0
2:(6)=0.860735107243839

Value in the initial state: 1.0

Time for model checking: 0.0 seconds.

Result: 1.0 (value in the initial state)

---------------------------------------------------------------------

Model checking: filter(printall, P=? [ F<=k "accept" ])
Property constants: k=27

Prob0: 2 iterations in 0.00 seconds (average 0.000000, setup 0.00)

yes = 2, no = 0, maybe = 1

Computing probabilities...
Engine: Hybrid

Building hybrid MTBDD matrix... [levels=3, nodes=13] [0.6 KB]
Adding explicit sparse matrices... [levels=3, num=1, compact] [0.0 KB]
Creating vector for yes... [dist=2, compact] [0.0 KB]
Allocating iteration vectors... [2 x 0.0 KB]
TOTAL: [0.7 KB]

Starting iterations...

Iterative method: 27 iterations in 0.00 seconds (average 0.000111, setup 0.00)

States satisfying filter true: 3

Results (including zeros) for filter true:
0:(1)=1.0
1:(3)=1.0
2:(6)=0.8709040904480012

Value in the initial state: 1.0

Time for model checking: 0.001 seconds.

Result: 1.0 (value in the initial state)

---------------------------------------------------------------------

Model checking: filter(printall, P=? [ F<=k "accept" ])
Property constants: k=28

Prob0: 2 iterations in 0.00 seconds (average 0.000000, setup 0.00)

yes = 2, no = 0, maybe = 1

Computing probabilities...
Engine: Hybrid

Building hybrid MTBDD matrix... [levels=3, nodes=13] [0.6 KB]
Adding explicit sparse matrices... [levels=3, num=1, compact] [0.0 KB]
Creating vector for yes... [dist=2, compact] [0.0 KB]
Allocating iteration vectors... [2 x 0.0 KB]
TOTAL: [0.7 KB]

Starting iterations...

Iterative method: 28 iterations in 0.00 seconds (average 0.000000, setup 0.00)

States satisfying filter true: 3

Results (including zeros) for filter true:
0:(1)=1.0
1:(3)=1.0
2:(6)=0.8803305446675787

Value in the initial state: 1.0

Time for model checking: 0.0 seconds.

Result: 1.0 (value in the initial state)

---------------------------------------------------------------------

Model checking: filter(printall, P=? [ F<=k "accept" ])
Property constants: k=29

Prob0: 2 iterations in 0.00 seconds (average 0.000000, setup 0.00)

yes = 2, no = 0, maybe = 1

Computing probabilities...
Engine: Hybrid

Building hybrid MTBDD matrix... [levels=3, nodes=13] [0.6 KB]
Adding explicit sparse matrices... [levels=3, num=1, compact] [0.0 KB]
Creating vector for yes... [dist=2, compact] [0.0 KB]
Allocating iteration vectors... [2 x 0.0 KB]
TOTAL: [0.7 KB]

Starting iterations...

Iterative method: 29 iterations in 0.00 seconds (average 0.000000, setup 0.00)

States satisfying filter true: 3

Results (including zeros) for filter true:
0:(1)=1.0
1:(3)=1.0
2:(6)=0.8890686886264967

Value in the initial state: 1.0

Time for model checking: 0.001 seconds.

Result: 1.0 (value in the initial state)

---------------------------------------------------------------------

Model checking: filter(printall, P=? [ F<=k "accept" ])
Property constants: k=30

Prob0: 2 iterations in 0.00 seconds (average 0.000000, setup 0.00)

yes = 2, no = 0, maybe = 1

Computing probabilities...
Engine: Hybrid

Building hybrid MTBDD matrix... [levels=3, nodes=13] [0.6 KB]
Adding explicit sparse matrices... [levels=3, num=1, compact] [0.0 KB]
Creating vector for yes... [dist=2, compact] [0.0 KB]
Allocating iteration vectors... [2 x 0.0 KB]
TOTAL: [0.7 KB]

Starting iterations...

Iterative method: 30 iterations in 0.00 seconds (average 0.000000, setup 0.00)

States satisfying filter true: 3

Results (including zeros) for filter true:
0:(1)=1.0
1:(3)=1.0
2:(6)=0.8971687820516785

Value in the initial state: 1.0

Time for model checking: 0.001 seconds.

Result: 1.0 (value in the initial state)

---------------------------------------------------------------------

Model checking: filter(printall, P=? [ F<=k "accept" ])
Property constants: k=31

Prob0: 2 iterations in 0.00 seconds (average 0.000000, setup 0.00)

yes = 2, no = 0, maybe = 1

Computing probabilities...
Engine: Hybrid

Building hybrid MTBDD matrix... [levels=3, nodes=13] [0.6 KB]
Adding explicit sparse matrices... [levels=3, num=1, compact] [0.0 KB]
Creating vector for yes... [dist=2, compact] [0.0 KB]
Allocating iteration vectors... [2 x 0.0 KB]
TOTAL: [0.7 KB]

Starting iterations...

Iterative method: 31 iterations in 0.00 seconds (average 0.000000, setup 0.00)

States satisfying filter true: 3

Results (including zeros) for filter true:
0:(1)=1.0
1:(3)=1.0
2:(6)=0.9046774147550469

Value in the initial state: 1.0

Time for model checking: 0.0 seconds.

Result: 1.0 (value in the initial state)

---------------------------------------------------------------------

Model checking: filter(printall, P=? [ F<=k "accept" ])
Property constants: k=32

Prob0: 2 iterations in 0.00 seconds (average 0.000000, setup 0.00)

yes = 2, no = 0, maybe = 1

Computing probabilities...
Engine: Hybrid

Building hybrid MTBDD matrix... [levels=3, nodes=13] [0.6 KB]
Adding explicit sparse matrices... [levels=3, num=1, compact] [0.0 KB]
Creating vector for yes... [dist=2, compact] [0.0 KB]
Allocating iteration vectors... [2 x 0.0 KB]
TOTAL: [0.7 KB]

Starting iterations...

Iterative method: 32 iterations in 0.00 seconds (average 0.000000, setup 0.00)

States satisfying filter true: 3

Results (including zeros) for filter true:
0:(1)=1.0
1:(3)=1.0
2:(6)=0.9116377746070483

Value in the initial state: 1.0

Time for model checking: 0.0 seconds.

Result: 1.0 (value in the initial state)

---------------------------------------------------------------------

Model checking: filter(printall, P=? [ F<=k "accept" ])
Property constants: k=33

Prob0: 2 iterations in 0.00 seconds (average 0.000000, setup 0.00)

yes = 2, no = 0, maybe = 1

Computing probabilities...
Engine: Hybrid

Building hybrid MTBDD matrix... [levels=3, nodes=13] [0.6 KB]
Adding explicit sparse matrices... [levels=3, num=1, compact] [0.0 KB]
Creating vector for yes... [dist=2, compact] [0.0 KB]
Allocating iteration vectors... [2 x 0.0 KB]
TOTAL: [0.7 KB]

Starting iterations...

Iterative method: 33 iterations in 0.00 seconds (average 0.000000, setup 0.00)

States satisfying filter true: 3

Results (including zeros) for filter true:
0:(1)=1.0
1:(3)=1.0
2:(6)=0.9180898959430164

Value in the initial state: 1.0

Time for model checking: 0.0 seconds.

Result: 1.0 (value in the initial state)

---------------------------------------------------------------------

Model checking: filter(printall, P=? [ F<=k "accept" ])
Property constants: k=34

Prob0: 2 iterations in 0.00 seconds (average 0.000000, setup 0.00)

yes = 2, no = 0, maybe = 1

Computing probabilities...
Engine: Hybrid

Building hybrid MTBDD matrix... [levels=3, nodes=13] [0.6 KB]
Adding explicit sparse matrices... [levels=3, num=1, compact] [0.0 KB]
Creating vector for yes... [dist=2, compact] [0.0 KB]
Allocating iteration vectors... [2 x 0.0 KB]
TOTAL: [0.7 KB]

Starting iterations...

Iterative method: 34 iterations in 0.00 seconds (average 0.000000, setup 0.00)

States satisfying filter true: 3

Results (including zeros) for filter true:
0:(1)=1.0
1:(3)=1.0
2:(6)=0.9240708898311534

Value in the initial state: 1.0

Time for model checking: 0.0 seconds.

Result: 1.0 (value in the initial state)

---------------------------------------------------------------------

Model checking: filter(printall, P=? [ F<=k "accept" ])
Property constants: k=35

Prob0: 2 iterations in 0.00 seconds (average 0.000000, setup 0.00)

yes = 2, no = 0, maybe = 1

Computing probabilities...
Engine: Hybrid

Building hybrid MTBDD matrix... [levels=3, nodes=13] [0.6 KB]
Adding explicit sparse matrices... [levels=3, num=1, compact] [0.0 KB]
Creating vector for yes... [dist=2, compact] [0.0 KB]
Allocating iteration vectors... [2 x 0.0 KB]
TOTAL: [0.7 KB]

Starting iterations...

Iterative method: 35 iterations in 0.00 seconds (average 0.000000, setup 0.00)

States satisfying filter true: 3

Results (including zeros) for filter true:
0:(1)=1.0
1:(3)=1.0
2:(6)=0.9296151575265725

Value in the initial state: 1.0

Time for model checking: 0.001 seconds.

Result: 1.0 (value in the initial state)

---------------------------------------------------------------------

Model checking: filter(printall, P=? [ F<=k "accept" ])
Property constants: k=36

Prob0: 2 iterations in 0.00 seconds (average 0.000000, setup 0.00)

yes = 2, no = 0, maybe = 1

Computing probabilities...
Engine: Hybrid

Building hybrid MTBDD matrix... [levels=3, nodes=13] [0.6 KB]
Adding explicit sparse matrices... [levels=3, num=1, compact] [0.0 KB]
Creating vector for yes... [dist=2, compact] [0.0 KB]
Allocating iteration vectors... [2 x 0.0 KB]
TOTAL: [0.7 KB]

Starting iterations...

Iterative method: 36 iterations in 0.01 seconds (average 0.000000, setup 0.01)

States satisfying filter true: 3

Results (including zeros) for filter true:
0:(1)=1.0
1:(3)=1.0
2:(6)=0.9347545883391397

Value in the initial state: 1.0

Time for model checking: 0.001 seconds.

Result: 1.0 (value in the initial state)

---------------------------------------------------------------------

Model checking: filter(printall, P=? [ F<=k "accept" ])
Property constants: k=37

Prob0: 2 iterations in 0.00 seconds (average 0.000000, setup 0.00)

yes = 2, no = 0, maybe = 1

Computing probabilities...
Engine: Hybrid

Building hybrid MTBDD matrix... [levels=3, nodes=13] [0.6 KB]
Adding explicit sparse matrices... [levels=3, num=1, compact] [0.0 KB]
Creating vector for yes... [dist=2, compact] [0.0 KB]
Allocating iteration vectors... [2 x 0.0 KB]
TOTAL: [0.7 KB]

Starting iterations...

Iterative method: 37 iterations in 0.00 seconds (average 0.000000, setup 0.00)

States satisfying filter true: 3

Results (including zeros) for filter true:
0:(1)=1.0
1:(3)=1.0
2:(6)=0.9395187430532042

Value in the initial state: 1.0

Time for model checking: 0.0 seconds.

Result: 1.0 (value in the initial state)

---------------------------------------------------------------------

Model checking: filter(printall, P=? [ F<=k "accept" ])
Property constants: k=38

Prob0: 2 iterations in 0.00 seconds (average 0.000000, setup 0.00)

yes = 2, no = 0, maybe = 1

Computing probabilities...
Engine: Hybrid

Building hybrid MTBDD matrix... [levels=3, nodes=13] [0.6 KB]
Adding explicit sparse matrices... [levels=3, num=1, compact] [0.0 KB]
Creating vector for yes... [dist=2, compact] [0.0 KB]
Allocating iteration vectors... [2 x 0.0 KB]
TOTAL: [0.7 KB]

Starting iterations...

Iterative method: 38 iterations in 0.00 seconds (average 0.000000, setup 0.00)

States satisfying filter true: 3

Results (including zeros) for filter true:
0:(1)=1.0
1:(3)=1.0
2:(6)=0.9439350239542024

Value in the initial state: 1.0

Time for model checking: 0.0 seconds.

Result: 1.0 (value in the initial state)

---------------------------------------------------------------------

Model checking: filter(printall, P=? [ F<=k "accept" ])
Property constants: k=39

Prob0: 2 iterations in 0.00 seconds (average 0.000000, setup 0.00)

yes = 2, no = 0, maybe = 1

Computing probabilities...
Engine: Hybrid

Building hybrid MTBDD matrix... [levels=3, nodes=13] [0.6 KB]
Adding explicit sparse matrices... [levels=3, num=1, compact] [0.0 KB]
Creating vector for yes... [dist=2, compact] [0.0 KB]
Allocating iteration vectors... [2 x 0.0 KB]
TOTAL: [0.7 KB]

Starting iterations...

Iterative method: 39 iterations in 0.00 seconds (average 0.000000, setup 0.00)

States satisfying filter true: 3

Results (including zeros) for filter true:
0:(1)=1.0
1:(3)=1.0
2:(6)=0.9480288324400905

Value in the initial state: 1.0

Time for model checking: 0.0 seconds.

Result: 1.0 (value in the initial state)

---------------------------------------------------------------------

Model checking: filter(printall, P=? [ F<=k "accept" ])
Property constants: k=40

Prob0: 2 iterations in 0.00 seconds (average 0.000000, setup 0.00)

yes = 2, no = 0, maybe = 1

Computing probabilities...
Engine: Hybrid

Building hybrid MTBDD matrix... [levels=3, nodes=13] [0.6 KB]
Adding explicit sparse matrices... [levels=3, num=1, compact] [0.0 KB]
Creating vector for yes... [dist=2, compact] [0.0 KB]
Allocating iteration vectors... [2 x 0.0 KB]
TOTAL: [0.7 KB]

Starting iterations...

Iterative method: 40 iterations in 0.00 seconds (average 0.000000, setup 0.00)

States satisfying filter true: 3

Results (including zeros) for filter true:
0:(1)=1.0
1:(3)=1.0
2:(6)=0.9518237151241475

Value in the initial state: 1.0

Time for model checking: 0.001 seconds.

Result: 1.0 (value in the initial state)

---------------------------------------------------------------------

Model checking: filter(printall, P=? [ F<=k "accept" ])
Property constants: k=41

Prob0: 2 iterations in 0.00 seconds (average 0.000000, setup 0.00)

yes = 2, no = 0, maybe = 1

Computing probabilities...
Engine: Hybrid

Building hybrid MTBDD matrix... [levels=3, nodes=13] [0.6 KB]
Adding explicit sparse matrices... [levels=3, num=1, compact] [0.0 KB]
Creating vector for yes... [dist=2, compact] [0.0 KB]
Allocating iteration vectors... [2 x 0.0 KB]
TOTAL: [0.7 KB]

Starting iterations...

Iterative method: 41 iterations in 0.00 seconds (average 0.000000, setup 0.00)

States satisfying filter true: 3

Results (including zeros) for filter true:
0:(1)=1.0
1:(3)=1.0
2:(6)=0.9553414992694975

Value in the initial state: 1.0

Time for model checking: 0.001 seconds.

Result: 1.0 (value in the initial state)

---------------------------------------------------------------------

Model checking: filter(printall, P=? [ F<=k "accept" ])
Property constants: k=42

Prob0: 2 iterations in 0.00 seconds (average 0.000000, setup 0.00)

yes = 2, no = 0, maybe = 1

Computing probabilities...
Engine: Hybrid

Building hybrid MTBDD matrix... [levels=3, nodes=13] [0.6 KB]
Adding explicit sparse matrices... [levels=3, num=1, compact] [0.0 KB]
Creating vector for yes... [dist=2, compact] [0.0 KB]
Allocating iteration vectors... [2 x 0.0 KB]
TOTAL: [0.7 KB]

Starting iterations...

Iterative method: 42 iterations in 0.00 seconds (average 0.000000, setup 0.00)

States satisfying filter true: 3

Results (including zeros) for filter true:
0:(1)=1.0
1:(3)=1.0
2:(6)=0.9586024183343382

Value in the initial state: 1.0

Time for model checking: 0.0 seconds.

Result: 1.0 (value in the initial state)

---------------------------------------------------------------------

Model checking: filter(printall, P=? [ F<=k "accept" ])
Property constants: k=43

Prob0: 2 iterations in 0.00 seconds (average 0.000000, setup 0.00)

yes = 2, no = 0, maybe = 1

Computing probabilities...
Engine: Hybrid

Building hybrid MTBDD matrix... [levels=3, nodes=13] [0.6 KB]
Adding explicit sparse matrices... [levels=3, num=1, compact] [0.0 KB]
Creating vector for yes... [dist=2, compact] [0.0 KB]
Allocating iteration vectors... [2 x 0.0 KB]
TOTAL: [0.7 KB]

Starting iterations...

Iterative method: 43 iterations in 0.00 seconds (average 0.000000, setup 0.00)

States satisfying filter true: 3

Results (including zeros) for filter true:
0:(1)=1.0
1:(3)=1.0
2:(6)=0.9616252283499833

Value in the initial state: 1.0

Time for model checking: 0.001 seconds.

Result: 1.0 (value in the initial state)

---------------------------------------------------------------------

Model checking: filter(printall, P=? [ F<=k "accept" ])
Property constants: k=44

Prob0: 2 iterations in 0.00 seconds (average 0.000000, setup 0.00)

yes = 2, no = 0, maybe = 1

Computing probabilities...
Engine: Hybrid

Building hybrid MTBDD matrix... [levels=3, nodes=13] [0.6 KB]
Adding explicit sparse matrices... [levels=3, num=1, compact] [0.0 KB]
Creating vector for yes... [dist=2, compact] [0.0 KB]
Allocating iteration vectors... [2 x 0.0 KB]
TOTAL: [0.7 KB]

Starting iterations...

Iterative method: 44 iterations in 0.00 seconds (average 0.000000, setup 0.00)

States satisfying filter true: 3

Results (including zeros) for filter true:
0:(1)=1.0
1:(3)=1.0
2:(6)=0.9644273158010959

Value in the initial state: 1.0

Time for model checking: 0.001 seconds.

Result: 1.0 (value in the initial state)

---------------------------------------------------------------------

Model checking: filter(printall, P=? [ F<=k "accept" ])
Property constants: k=45

Prob0: 2 iterations in 0.00 seconds (average 0.000000, setup 0.00)

yes = 2, no = 0, maybe = 1

Computing probabilities...
Engine: Hybrid

Building hybrid MTBDD matrix... [levels=3, nodes=13] [0.6 KB]
Adding explicit sparse matrices... [levels=3, num=1, compact] [0.0 KB]
Creating vector for yes... [dist=2, compact] [0.0 KB]
Allocating iteration vectors... [2 x 0.0 KB]
TOTAL: [0.7 KB]

Starting iterations...

Iterative method: 45 iterations in 0.00 seconds (average 0.000000, setup 0.00)

States satisfying filter true: 3

Results (including zeros) for filter true:
0:(1)=1.0
1:(3)=1.0
2:(6)=0.9670247976286157

Value in the initial state: 1.0

Time for model checking: 0.0 seconds.

Result: 1.0 (value in the initial state)

---------------------------------------------------------------------

Model checking: filter(printall, P=? [ F<=k "accept" ])
Property constants: k=46

Prob0: 2 iterations in 0.00 seconds (average 0.000000, setup 0.00)

yes = 2, no = 0, maybe = 1

Computing probabilities...
Engine: Hybrid

Building hybrid MTBDD matrix... [levels=3, nodes=13] [0.6 KB]
Adding explicit sparse matrices... [levels=3, num=1, compact] [0.0 KB]
Creating vector for yes... [dist=2, compact] [0.0 KB]
Allocating iteration vectors... [2 x 0.0 KB]
TOTAL: [0.7 KB]

Starting iterations...

Iterative method: 46 iterations in 0.00 seconds (average 0.000000, setup 0.00)

States satisfying filter true: 3

Results (including zeros) for filter true:
0:(1)=1.0
1:(3)=1.0
2:(6)=0.9694326139305718

Value in the initial state: 1.0

Time for model checking: 0.001 seconds.

Result: 1.0 (value in the initial state)

---------------------------------------------------------------------

Model checking: filter(printall, P=? [ F<=k "accept" ])
Property constants: k=47

Prob0: 2 iterations in 0.00 seconds (average 0.000000, setup 0.00)

yes = 2, no = 0, maybe = 1

Computing probabilities...
Engine: Hybrid

Building hybrid MTBDD matrix... [levels=3, nodes=13] [0.6 KB]
Adding explicit sparse matrices... [levels=3, num=1, compact] [0.0 KB]
Creating vector for yes... [dist=2, compact] [0.0 KB]
Allocating iteration vectors... [2 x 0.0 KB]
TOTAL: [0.7 KB]

Starting iterations...

Iterative method: 47 iterations in 0.00 seconds (average 0.000000, setup 0.00)

States satisfying filter true: 3

Results (including zeros) for filter true:
0:(1)=1.0
1:(3)=1.0
2:(6)=0.9716646138939755

Value in the initial state: 1.0

Time for model checking: 0.001 seconds.

Result: 1.0 (value in the initial state)

---------------------------------------------------------------------

Model checking: filter(printall, P=? [ F<=k "accept" ])
Property constants: k=48

Prob0: 2 iterations in 0.00 seconds (average 0.000000, setup 0.00)

yes = 2, no = 0, maybe = 1

Computing probabilities...
Engine: Hybrid

Building hybrid MTBDD matrix... [levels=3, nodes=13] [0.6 KB]
Adding explicit sparse matrices... [levels=3, num=1, compact] [0.0 KB]
Creating vector for yes... [dist=2, compact] [0.0 KB]
Allocating iteration vectors... [2 x 0.0 KB]
TOTAL: [0.7 KB]

Starting iterations...

Iterative method: 48 iterations in 0.00 seconds (average 0.000000, setup 0.00)

States satisfying filter true: 3

Results (including zeros) for filter true:
0:(1)=1.0
1:(3)=1.0
2:(6)=0.9737336354520514

Value in the initial state: 1.0

Time for model checking: 0.001 seconds.

Result: 1.0 (value in the initial state)

---------------------------------------------------------------------

Model checking: filter(printall, P=? [ F<=k "accept" ])
Property constants: k=49

Prob0: 2 iterations in 0.00 seconds (average 0.000000, setup 0.00)

yes = 2, no = 0, maybe = 1

Computing probabilities...
Engine: Hybrid

Building hybrid MTBDD matrix... [levels=3, nodes=13] [0.6 KB]
Adding explicit sparse matrices... [levels=3, num=1, compact] [0.0 KB]
Creating vector for yes... [dist=2, compact] [0.0 KB]
Allocating iteration vectors... [2 x 0.0 KB]
TOTAL: [0.7 KB]

Starting iterations...

Iterative method: 49 iterations in 0.00 seconds (average 0.000020, setup 0.00)

States satisfying filter true: 3

Results (including zeros) for filter true:
0:(1)=1.0
1:(3)=1.0
2:(6)=0.975651579124978

Value in the initial state: 1.0

Time for model checking: 0.001 seconds.

Result: 1.0 (value in the initial state)

---------------------------------------------------------------------

Model checking: filter(printall, P=? [ F<=k "accept" ])
Property constants: k=50

Prob0: 2 iterations in 0.00 seconds (average 0.000000, setup 0.00)

yes = 2, no = 0, maybe = 1

Computing probabilities...
Engine: Hybrid

Building hybrid MTBDD matrix... [levels=3, nodes=13] [0.6 KB]
Adding explicit sparse matrices... [levels=3, num=1, compact] [0.0 KB]
Creating vector for yes... [dist=2, compact] [0.0 KB]
Allocating iteration vectors... [2 x 0.0 KB]
TOTAL: [0.7 KB]

Starting iterations...

Iterative method: 50 iterations in 0.00 seconds (average 0.000000, setup 0.00)

States satisfying filter true: 3

Results (including zeros) for filter true:
0:(1)=1.0
1:(3)=1.0
2:(6)=0.9774294764688514

Value in the initial state: 1.0

Time for model checking: 0.001 seconds.

Result: 1.0 (value in the initial state)
