think,hungry,try,pick,eat,drop,drop,think,hungry,try,try,pick,eat,drop,drop,think,hungry,try,try,try,pick,eat,drop,drop,think,hungry,try,try,pick,eat,drop,drop,think,hungry,try,try,try,pick,eat,drop,drop,think,hungry,try,try,pick,eat,drop,drop,think,hungry,try,try,try,pick,eat,drop,drop,think,hungry,try,try,try,pick,eat,drop,drop,think,hungry,try,try,try,pick,eat,drop,drop,think,hungry,try,try,try,pick,eat,drop,drop
think,hungry,try,pick,eat,drop,drop,think,hungry,try,pick,eat,drop,drop,think,hungry,try,pick,eat,drop,drop,think,hungry,try,try,pick,eat,drop,drop,think,hungry,try,try,try,pick,eat,drop,drop,think,hungry,try,try,pick,eat,drop,drop,think,hungry,try,try,try,pick,eat,drop,drop,think,hungry,try,try,try,pick,eat,drop,drop,think,hungry,try,try,try,pick,eat,drop,drop,think,hungry,try,try,pick,eat,drop,drop,think,hungry,try
think,hungry,try,pick,drop,hungry,try,try,pick,eat,drop,drop,think,hungry,try,pick,eat,drop,drop,think,hungry,try,try,try,pick,eat,drop,drop,think,hungry,try,try,try,try,pick,eat,drop,drop,think,hungry,try,try,pick,eat,drop,drop,think,hungry,try,try,try,pick,eat,drop,drop,think,hungry,try,try,try,pick,eat,drop,drop,think,hungry,try,try,try,pick,eat,drop,drop,think,hungry,try,try,try,pick,eat,drop,drop,think
think,hungry,try,pick,drop,hungry,try,try,try,try,pick,drop,hungry,try,try,try,try,try,pick,drop,hungry,try,try,try,try,try,pick,eat,drop,drop,think,hungry,try,try,try,pick,eat,drop,drop,think,hungry,try,try,pick,drop,hungry,try,pick,drop,hungry,try,try,try,try,pick,drop,hungry,try,try,try,try,try,pick,eat,drop,drop,think,hungry,try
think,hungry,try,try,try,try,try,try,try,try,try,try,try,try,try,try,try,try,try,try,try,pick,drop,hungry,try,pick,eat,drop,drop,think,hungry,try,try,try,try,try,try,pick,drop,hungry,try,try,pick,drop,hungry,try,try,pick,eat,drop,drop,think,hungry,try,try
think,hungry,try,pick,eat,drop,drop,think,hungry,try,try,pick,eat,drop,drop,think,hungry,try,try,pick,eat,drop,drop,think,hungry,try,try,pick,eat,drop,drop,think,hungry,try,try,try,pick,eat,drop,drop,think,hungry,try,try,try,pick,eat,drop,drop,think,hungry,try,pick,drop,hungry,try,pick,eat,drop,drop,think,hungry,try,try,pick,eat,drop,drop,think
think,hungry,try,try,try,try,try,try,try,try,try,try,try,try,try,try,try,try,pick,drop,hungry,try,pick,drop,hungry,try,try,try,pick,drop,hungry,try,pick,eat,drop,drop,think,hungry,try,try,pick,eat,drop,drop,think,hungry,try,try,pick,eat,drop,drop,think,hungry,try,try,try,pick,eat,drop,drop,think,hungry,try,try,pick,eat,drop,drop,think,hungry
think,hungry,try,pick,drop,hungry,try,try,pick,eat,drop,drop,think,hungry,try,try,pick,drop,hungry,try,pick,eat,drop,drop,think,hungry,try,try,try,pick,eat,drop,drop,think,hungry,try,try,try,try,try,try,try,try,try,try,try,pick,eat,drop,drop,think
think,hungry,try,pick,drop,hungry,try,try,try,try,try,try,try,try,try,try,try,try,try,try,try,pick,drop,hungry,try,pick,drop,hungry,try,try,try,try,pick,eat,drop,drop,think,hungry,try,try,try,try,pick,eat,drop,drop,think,hungry,try,try,try,pick,eat,drop,drop,think,hungry,try,try,try,pick,eat,drop,drop,think,hungry,try,try,try,try,pick
think,hungry,try,pick,drop,hungry,try,try,try,try,pick,drop,hungry,try,pick,eat,drop,drop,think,hungry,try,try,pick,eat,drop,drop,think,hungry,try,try,try,try,pick,eat,drop,drop,think,hungry,try,try,try,pick,eat,drop,drop,think,hungry,try,try,pick,eat,drop,drop,think,hungry,try,try,try,pick,eat,drop,drop,think,hungry,try,try,pick,drop,hungry,try,pick
think,hungry,try,pick,drop,hungry,try,try,try,try,try,try,try,try,try,try,try,try,try,try,try,pick,eat,drop,drop,think,hungry,try,try,try,try,try,pick,eat,drop,drop,think,hungry,try,try,pick,eat,drop,drop,think,hungry,try,try,try,pick,eat,drop,drop,think,hungry
think,hungry,try,pick,drop,hungry,try,try,try,try,pick,eat,drop,drop,think,hungry,try,try,try,try,try,try,try,pick,drop,hungry,try,try,try,pick,drop,hungry,try,pick,eat,drop,drop,think,hungry,try,try,try,pick,eat,drop,drop,think,hungry,try,pick,drop,hungry,try,try,pick,eat,drop,drop,think,hungry,try,try,try,try,try,pick
think,hungry,try,pick,drop,hungry,try,try,pick,eat,drop,drop,think,hungry,try,try,try,pick,eat,drop,drop,think,hungry,try,try,try,try,pick,eat,drop,drop,think,hungry,try,try,pick,eat,drop,drop,think,hungry,try,try,try,pick,eat,drop,drop,think,hungry,try,try,try,pick,eat,drop,drop,think,hungry,try,try,try,pick,eat,drop,drop,think,hungry,try,try,try,pick
think,hungry,try,pick,eat,drop,drop,think,hungry,try,try,try,try,pick,eat,drop,drop,think,hungry,try,try,try,pick,eat,drop,drop,think,hungry,try,try,try,pick,eat,drop,drop,think,hungry,try,try,try,try,try,try,pick,drop,hungry,try,try,try,try,try,pick,eat,drop,drop,think
think,hungry,try,pick,drop,hungry,try,try,try,try,try,try,try,try,try,try,try,try,try,try,try,try,try,try,try,try,try,try,try,try,try,try,try,try,try,try,pick,drop,hungry,try,try,try,try,try,try,try,try,pick,eat,drop,drop,think,hungry,try,try,try,pick,eat,drop,drop,think,hungry,try,try,try
think,hungry,try,pick,drop,hungry,try,try,try,try,try,try,try,pick,eat,drop,drop,think,hungry,try,try,try,pick,eat,drop,drop,think,hungry,try,try,try,pick,eat,drop,drop,think,hungry,try,try,pick,eat,drop,drop,think,hungry,try,try,try,pick,eat,drop,drop,think,hungry,try,try,pick,eat,drop,drop,think,hungry,try,try,try,pick,eat,drop,drop,think,hungry,try,try,try,pick
think,hungry,try,pick,drop,hungry,try,try,try,try,try,try,try,try,try,try,try,pick,drop,hungry,try,try,try,try,pick,drop,hungry,try,try,try,try,try,try,try,pick,drop,hungry,try,pick,eat,drop,drop,think,hungry,try,try,pick,eat,drop,drop,think,hungry,try,pick,drop,hungry,try,try,try,try,pick,eat,drop
think,hungry,try,try,try,try,try,try,try,try,try,try,try,try,try,try,try,try,try,try,try,try,try,pick,eat,drop,drop,think,hungry,try,try,try,try,pick,eat,drop,drop,think,hungry,try,try,try,pick,eat,drop,drop,think,hungry,try,try,try,pick,eat,drop,drop,think,hungry,try
think,hungry,try,pick,drop,hungry,try,try,try,try,try,try,try,try,try,try,try,try,try,try,try,try,try,try,try,try,pick,eat,drop,drop,think,hungry,try,try,try,try,try,pick,eat,drop,drop,think,hungry,try,try,try,pick,eat,drop,drop,think,hungry,try,try,try,pick,eat,drop,drop,think,hungry,try,try,try,try,pick,eat,drop,drop,think,hungry,try,try,try,pick
think,hungry,try,try,try,try,try,try,pick,drop,hungry,try,pick,drop,hungry,try,try,try,try,try,pick,drop,hungry,try,try,try,try,try,try,pick,drop,hungry,try,pick,drop,hungry,try,try,try,pick,drop,hungry,try,pick,drop,hungry,try,pick,eat,drop,drop,think,hungry,try,try,try,pick,eat,drop,drop,think,hungry,try,try,pick,eat,drop,drop
think,hungry,try,pick,drop,hungry,try,try,try,pick,eat,drop,drop,think,hungry,try,pick,drop,hungry,try,try,try,try,pick,drop,hungry,try,pick,eat,drop,drop,think,hungry,try,try,pick,eat,drop,drop,think,hungry,try,try,try,try,try,pick,eat,drop,drop,think,hungry,try
think,hungry,try,pick,drop,hungry,try,try,try,try,try,try,try,try,try,try,try,try,try,try,try,pick,drop,hungry,try,pick,eat,drop,drop,think,hungry,try,try,try,pick,eat,drop,drop,think,hungry,try,try,pick,eat,drop,drop,think,hungry,try,try,try,pick,eat,drop,drop,think,hungry,try,try,try,pick,eat,drop,drop,think,hungry,try,try,try,pick,eat,drop,drop
think,hungry,try,try,try,try,try,pick,eat,drop,drop,think,hungry,try,try,try,pick,eat,drop,drop,think,hungry,try,pick,eat,drop,drop,think,hungry,try,pick,drop,hungry,try,pick,drop,hungry,try,try,try,pick,drop,hungry,try,try,try,try,try,try,pick,eat,drop,drop,think,hungry,try,try,pick,drop,hungry,try,try,try,try,try,try,try,pick,drop,hungry,try,pick
think,hungry,try,pick,drop,hungry,try,pick,eat,drop,drop,think,hungry,try,try,pick,eat,drop,drop,think,hungry,try,try,pick,eat,drop,drop,think,hungry,try,try,pick,eat,drop,drop,think,hungry,try,pick,drop,hungry,try,try,try,pick,drop,hungry,try,try,try,try
think,hungry,try,pick,drop,hungry,try,try,try,try,try,try,try,pick,drop,hungry,try,try,try,pick,drop,hungry,try,pick,eat,drop,drop,think,hungry,try,try,pick,eat,drop,drop,think,hungry,try,try,try,pick,eat,drop,drop,think,hungry,try,try,pick,eat,drop,drop,think,hungry,try,try,try,pick,eat,drop,drop,think,hungry,try,try,try,try,pick,eat
think,hungry,try,pick,drop,hungry,try,try,try,try,try,try,try,try,try,try,try,try,try,try,try,try,try,try,try,try,try,pick,drop,hungry,try,pick,eat,drop,drop,think,hungry,try,try,pick,eat,drop,drop,think,hungry,try,try,try,pick,eat,drop,drop,think,hungry,try,try,try,pick,eat,drop,drop,think,hungry,try,try,try,try,try,try,try,pick,eat,drop
think,hungry,try,pick,drop,hungry,try,try,try,pick,drop,hungry,try,try,try,try,try,try,pick,drop,hungry,try,try,try,try,try,try,pick,eat,drop,drop,think,hungry,try,try,pick,eat,drop,drop,think,hungry,try,try,try,pick,eat,drop,drop,think,hungry,try,try,try,pick
think,hungry,try,pick,drop,hungry,try,try,try,try,try,try,try,try,try,try,try,try,try,try,try,try,pick,drop,hungry,try,try,pick,drop,hungry,try,try,try,try,pick,eat,drop,drop,think,hungry,try,try,pick,eat,drop,drop,think,hungry,try,try,try,pick,eat,drop,drop,think,hungry,try,try,try,pick,eat,drop,drop,think,hungry,try
think,hungry,try,try,try,try,try,try,try,try,try,pick,eat,drop,drop,think,hungry,try,pick,drop,hungry,try,pick,eat,drop,drop,think,hungry,try,try,pick,eat,drop,drop,think,hungry,try,try,try,pick,eat,drop,drop,think,hungry,try,try,try,pick,eat,drop,drop,think,hungry,try,try,try,pick,eat,drop,drop,think,hungry,try,try,try,try,try,try,try,try,try,pick,drop,hungry
think,hungry,try,try,try,try,try,try,try,try,try,pick,eat,drop,drop,think,hungry,try,try,pick,eat,drop,drop,think,hungry,try,try,pick,eat,drop,drop,think,hungry,try,try,try,pick,eat,drop,drop,think,hungry,try,try,try,pick,eat,drop,drop,think,hungry,try,try,try,pick,eat
think,hungry,try,try,try,try,try,try,pick,drop,hungry,try,pick,drop,hungry,try,try,pick,drop,hungry,try,pick,eat,drop,drop,think,hungry,try,try,try,pick,eat,drop,drop,think,hungry,try,try,pick,eat,drop,drop,think,hungry,try,try,try,pick,eat,drop,drop,think,hungry,try,try,pick,eat,drop,drop,think,hungry
think,hungry,try,pick,eat,drop,drop,think,hungry,try,try,pick,drop,hungry,try,pick,drop,hungry,try,try,try,try,try,try,try,try,try,try,try,try,try,try,try,try,try,pick,eat,drop,drop,think,hungry,try,try,try,pick,eat,drop,drop,think,hungry,try,try,pick,drop,hungry,try,pick,eat,drop,drop,think,hungry,try,try,pick,eat,drop,drop,think,hungry,try,try,try,pick,eat,drop
think,hungry,try,pick,drop,hungry,try,try,try,pick,eat,drop,drop,think,hungry,try,try,pick,eat,drop,drop,think,hungry,try,try,try,try,pick,eat,drop,drop,think,hungry,try,try,try,try,pick,eat,drop,drop,think,hungry,try,try,try,try,pick,eat,drop,drop,think,hungry,try,try,try,pick,eat,drop,drop,think
think,hungry,try,pick,eat,drop,drop,think,hungry,try,try,pick,eat,drop,drop,think,hungry,try,try,pick,drop,hungry,try,try,try,try,try,try,pick,eat,drop,drop,think,hungry,try,try,pick,eat,drop,drop,think,hungry,try,try,try,pick,eat,drop,drop,think,hungry,try,try,try,pick,eat,drop
think,hungry,try,pick,drop,hungry,try,pick,eat,drop,drop,think,hungry,try,pick,drop,hungry,try,try,try,pick,eat,drop,drop,think,hungry,try,try,try,pick,eat,drop,drop,think,hungry,try,try,try,pick,eat,drop,drop,think,hungry,try,try,try,pick,eat,drop,drop,think,hungry,try,try,pick,eat,drop,drop,think,hungry,try,try,try,pick,eat,drop,drop,think,hungry,try,try,try
think,hungry,try,pick,drop,hungry,try,try,try,try,try,try,try,try,try,try,try,try,try,pick,eat,drop,drop,think,hungry,try,try,pick,eat,drop,drop,think,hungry,try,try,try,pick,eat,drop,drop,think,hungry,try,try,try,try,pick,eat,drop,drop,think,hungry,try,try,try,pick,eat,drop,drop,think,hungry,try,try,pick,eat,drop
think,hungry,try,try,try,try,try,try,try,try,try,try,try,try,try,try,try,try,try,pick,drop,hungry,try,try,try,try,try,pick,drop,hungry,try,pick,eat,drop,drop,think,hungry,try,try,pick,eat,drop,drop,think,hungry,try,try,try,pick,eat,drop,drop,think,hungry
think,hungry,try,pick,drop,hungry,try,try,try,pick,drop,hungry,try,pick,drop,hungry,try,pick,drop,hungry,try,try,try,pick,drop,hungry,try,try,try,try,try,try,pick,eat,drop,drop,think,hungry,try,try,pick,drop,hungry,try,pick,eat,drop,drop,think,hungry,try,try,pick,drop,hungry,try,pick,eat,drop,drop,think,hungry,try,try
think,hungry,try,pick,eat,drop,drop,think,hungry,try,try,try,pick,eat,drop,drop,think,hungry,try,try,try,pick,eat,drop,drop,think,hungry,try,try,try,pick,eat,drop,drop,think,hungry,try,try,try,pick,eat,drop,drop,think,hungry,try,try,try,pick,eat,drop,drop,think,hungry,try,try,try,pick,eat,drop,drop,think
think,hungry,try,try,try,try,try,try,try,try,try,try,try,try,try,try,try,try,pick,drop,hungry,try,try,pick,drop,hungry,try,pick,drop,hungry,try,try,try,try,try,pick,drop,hungry,try,try,pick,drop,hungry,try,try,pick,drop,hungry,try,try,pick,drop,hungry,try,pick,eat,drop,drop,think,hungry,try,try,try
think,hungry,try,pick,drop,hungry,try,try,try,try,pick,eat,drop,drop,think,hungry,try,try,try,pick,eat,drop,drop,think,hungry,try,try,pick,eat,drop,drop,think,hungry,try,try,pick,eat,drop,drop,think,hungry,try,pick,drop,hungry,try,pick,eat,drop,drop,think,hungry,try,try,pick,eat,drop,drop,think,hungry,try,try,try,try,pick,eat,drop,drop,think
think,hungry,try,pick,drop,hungry,try,try,try,try,pick,drop,hungry,try,try,try,try,try,try,try,pick,eat,drop,drop,think,hungry,try,try,pick,eat,drop,drop,think,hungry,try,try,pick,eat,drop,drop,think,hungry,try,try,pick,eat,drop,drop,think,hungry,try,try,try,pick,eat,drop,drop,think,hungry,try,try,try,pick,eat,drop,drop,think,hungry,try,try,try,pick
think,hungry,try,try,try,try,try,pick,drop,hungry,try,pick,eat,drop,drop,think,hungry,try,try,pick,drop,hungry,try,try,pick,drop,hungry,try,pick,eat,drop,drop,think,hungry,try,try,pick,eat,drop,drop,think,hungry,try,try,try,pick,eat,drop,drop,think,hungry,try,try,try,pick
think,hungry,try,pick,eat,drop,drop,think,hungry,try,pick,eat,drop,drop,think,hungry,try,try,pick,drop,hungry,try,try,try,try,try,try,try,try,try,try,pick,eat,drop,drop,think,hungry,try,try,try,pick,eat,drop,drop,think,hungry,try,try,try,try,try,pick,eat,drop,drop,think,hungry,try,try,try,pick,eat,drop
think,hungry,try,pick,drop,hungry,try,try,try,try,try,try,try,try,try,pick,eat,drop,drop,think,hungry,try,try,try,try,pick,eat,drop,drop,think,hungry,try,try,try,pick,eat,drop,drop,think,hungry,try,try,try,pick,eat,drop,drop,think,hungry,try,try,try,pick,eat,drop,drop,think,hungry,try,try,try
think,hungry,try,try,try,try,try,pick,eat,drop,drop,think,hungry,try,try,pick,drop,hungry,try,pick,eat,drop,drop,think,hungry,try,try,pick,eat,drop,drop,think,hungry,try,try,try,try,pick,eat,drop,drop,think,hungry,try,try,try,pick,eat,drop,drop,think,hungry,try,try,try,pick,eat,drop,drop,think,hungry,try,try,try,pick,eat,drop,drop,think,hungry,try
think,hungry,try,try,try,try,try,try,try,try,try,try,try,try,try,try,try,try,try,try,try,try,try,pick,eat,drop,drop,think,hungry,try,try,try,pick,eat,drop,drop,think,hungry,try,try,try,pick,eat,drop,drop,think,hungry,try,try,try,pick,eat,drop,drop,think,hungry,try,try,try,pick,eat,drop,drop,think,hungry,try,try,try,pick,eat
think,hungry,try,pick,eat,drop,drop,think,hungry,try,pick,drop,hungry,try,try,try,try,try,try,pick,drop,hungry,try,pick,drop,hungry,try,try,try,try,pick,eat,drop,drop,think,hungry,try,try,pick,eat,drop,drop,think,hungry,try,try,try,pick,eat,drop,drop
think,hungry,try,pick,drop,hungry,try,try,try,try,try,pick,eat,drop,drop,think,hungry,try,try,pick,eat,drop,drop,think,hungry,try,pick,drop,hungry,try,pick,drop,hungry,try,pick,eat,drop,drop,think,hungry,try,pick,drop,hungry,try,pick,eat,drop,drop,think,hungry,try,pick,eat,drop,drop,think,hungry,try,try,try,try,pick
think,hungry,try,pick,drop,hungry,try,pick,drop,hungry,try,try,try,try,try,pick,drop,hungry,try,try,try,try,pick,drop,hungry,try,try,try,try,try,try,try,try,pick,drop,hungry,try,pick,drop,hungry,try,try,pick,drop,hungry,try,pick,eat,drop,drop,think,hungry,try,try,try,pick,eat,drop,drop,think,hungry,try,try,pick
think,hungry,try,try,try,try,try,try,try,try,try,try,try,pick,eat,drop,drop,think,hungry,try,try,pick,eat,drop,drop,think,hungry,try,try,try,try,pick,eat,drop,drop,think,hungry,try,try,try,pick,eat,drop,drop,think,hungry,try,try,pick,eat,drop,drop,think,hungry,try,try,try,try,pick
think,hungry,try,pick,drop,hungry,try,try,try,try,try,try,try,try,pick,drop,hungry,try,try,try,try,try,try,try,try,try,try,try,try,pick,drop,hungry,try,pick,eat,drop,drop,think,hungry,try,try,pick,eat,drop,drop,think,hungry,try,try,try,pick,eat,drop,drop,think,hungry,try,try,pick,eat,drop,drop,think,hungry,try,try,try
think,hungry,try,pick,drop,hungry,try,pick,drop,hungry,try,pick,drop,hungry,try,try,try,try,try,try,pick,eat,drop,drop,think,hungry,try,try,pick,eat,drop,drop,think,hungry,try,try,try,try,pick,eat,drop,drop,think,hungry,try,try,try,pick,eat,drop,drop,think,hungry,try,try,try,pick,eat,drop,drop
think,hungry,try,pick,drop,hungry,try,try,pick,eat,drop,drop,think,hungry,try,try,pick,drop,hungry,try,pick,eat,drop,drop,think,hungry,try,try,pick,drop,hungry,try,pick,eat,drop,drop,think,hungry,try,try,pick,eat,drop,drop,think,hungry,try,try,try,try,pick,eat,drop,drop,think,hungry,try,try,try,pick,eat,drop
think,hungry,try,try,try,try,try,try,try,try,try,pick,drop,hungry,try,try,pick,eat,drop,drop,think,hungry,try,try,pick,drop,hungry,try,pick,drop,hungry,try,pick,eat,drop,drop,think,hungry,try,try,pick,eat,drop,drop,think,hungry,try,try,try,pick,eat,drop,drop,think,hungry,try,try,try,pick,eat,drop,drop,think,hungry
think,hungry,try,pick,drop,hungry,try,try,try,try,try,try,try,pick,drop,hungry,try,pick,drop,hungry,try,try,try,pick,eat,drop,drop,think,hungry,try,try,pick,drop,hungry,try,try,try,try,try,pick,drop,hungry,try,pick,eat,drop,drop,think,hungry,try,try,try,try,try,pick,drop,hungry,try,try,pick,drop,hungry,try
think,hungry,try,try,try,try,try,try,try,try,try,try,try,try,try,try,try,pick,eat,drop,drop,think,hungry,try,try,try,pick,eat,drop,drop,think,hungry,try,try,try,pick,eat,drop,drop,think,hungry,try,try,try,pick,eat,drop,drop,think,hungry,try,try,try,pick,eat,drop,drop,think,hungry,try,try,try,pick,eat,drop,drop,think,hungry,try
think,hungry,try,pick,drop,hungry,try,try,try,try,try,try,try,try,try,try,pick,drop,hungry,try,pick,drop,hungry,try,try,try,try,pick,eat,drop,drop,think,hungry,try,try,try,pick,eat,drop,drop,think,hungry,try,try,try,pick,eat,drop,drop,think,hungry,try,try,try,try,pick,eat,drop,drop,think,hungry,try,try,try,pick,eat,drop,drop,think,hungry,try,try,try,pick
think,hungry,try,pick,drop,hungry,try,try,try,try,try,try,try,try,try,try,try,pick,drop,hungry,try,try,try,try,try,try,try,pick,eat,drop,drop,think,hungry,try,try,pick,eat,drop,drop,think,hungry,try,try,try,pick,drop,hungry,try,pick,drop,hungry,try,try,pick,drop,hungry
think,hungry,try,pick,drop,hungry,try,try,try,try,try,try,try,try,try,try,try,try,try,try,try,try,try,pick,eat,drop,drop,think,hungry,try,try,try,pick,eat,drop,drop,think,hungry,try,try,try,pick,eat,drop,drop,think,hungry,try,try,try,pick,eat,drop,drop,think,hungry,try,try,try,pick,eat,drop,drop,think
think,hungry,try,pick,eat,drop,drop,think,hungry,try,try,pick,drop,hungry,try,pick,drop,hungry,try,pick,drop,hungry,try,pick,drop,hungry,try,try,pick,drop,hungry,try,pick,eat,drop,drop,think,hungry,try,try,try,pick,eat,drop,drop,think,hungry,try,try,try,pick,drop,hungry,try,pick,eat,drop,drop,think,hungry
think,hungry,try,pick,eat,drop,drop,think,hungry,try,try,try,pick,eat,drop,drop,think,hungry,try,try,try,pick,eat,drop,drop,think,hungry,try,try,try,pick,eat,drop,drop,think,hungry,try,try,try,try,pick,eat,drop,drop,think,hungry,try,try,pick,eat,drop,drop,think,hungry,try,try,try,pick,eat,drop,drop
think,hungry,try,try,try,try,try,pick,eat,drop,drop,think,hungry,try,try,try,pick,eat,drop,drop,think,hungry,try,try,try,pick,eat,drop,drop,think,hungry,try,pick,drop,hungry,try,pick,eat,drop,drop,think,hungry,try,try,pick,eat,drop,drop,think,hungry,try,try,try,pick,eat,drop,drop,think,hungry,try,try,try,pick
think,hungry,try,pick,drop,hungry,try,try,try,try,pick,eat,drop,drop,think,hungry,try,try,try,pick,eat,drop,drop,think,hungry,try,try,try,pick,eat,drop,drop,think,hungry,try,try,pick,eat,drop,drop,think,hungry,try,try,try,pick,eat,drop,drop,think,hungry,try,try,try,pick,eat,drop,drop
think,hungry,try,pick,eat,drop,drop,think,hungry,try,try,pick,eat,drop,drop,think,hungry,try,try,try,try,pick,eat,drop,drop,think,hungry,try,try,try,pick,drop,hungry,try,pick,eat,drop,drop,think,hungry,try,try,try,pick,eat,drop,drop,think,hungry,try,try,pick,eat,drop,drop,think,hungry,try,try,try,pick,eat,drop,drop,think,hungry,try,pick
think,hungry,try,pick,eat,drop,drop,think,hungry,try,try,pick,eat,drop,drop,think,hungry,try,try,pick,eat,drop,drop,think,hungry,try,try,try,pick,eat,drop,drop,think,hungry,try,try,pick,eat,drop,drop,think,hungry,try,try,try,try,try,try,pick,eat,drop,drop,think,hungry,try,try,try,try,pick,eat,drop,drop,think,hungry,try,try,pick
think,hungry,try,pick,drop,hungry,try,pick,drop,hungry,try,try,pick,drop,hungry,try,pick,eat,drop,drop,think,hungry,try,try,try,try,pick,eat,drop,drop,think,hungry,try,try,try,pick,eat,drop,drop,think,hungry,try,try,pick,eat,drop,drop,think,hungry,try,try,pick,eat,drop,drop,think,hungry,try,try,try,pick,eat,drop,drop,think,hungry
think,hungry,try,pick,drop,hungry,try,try,try,pick,eat,drop,drop,think,hungry,try,try,try,pick,drop,hungry,try,pick,eat,drop,drop,think,hungry,try,try,pick,drop,hungry,try,try,pick,drop,hungry,try,pick,eat,drop,drop,think,hungry,try,try,try,pick,drop,hungry,try,pick,drop,hungry,try,try,try,try,pick,eat,drop,drop,think,hungry,try,try,try,pick,eat,drop,drop,think,hungry,try,try,try,try
think,hungry,try,pick,drop,hungry,try,try,try,pick,eat,drop,drop,think,hungry,try,try,pick,eat,drop,drop,think,hungry,try,try,try,pick,eat,drop,drop,think,hungry,try,pick,drop,hungry,try,pick,eat,drop,drop,think,hungry,try,try,pick,eat,drop,drop,think,hungry,try,try,try,pick,eat,drop,drop,think,hungry
think,hungry,try,pick,drop,hungry,try,try,try,try,try,try,try,try,try,try,try,pick,eat,drop,drop,think,hungry,try,try,try,pick,eat,drop,drop,think,hungry,try,try,try,pick,eat,drop,drop,think,hungry,try,try,try,pick,eat,drop,drop,think,hungry,try,try,try,pick,eat,drop,drop,think,hungry,try,try,try,pick
think,hungry,try,pick,drop,hungry,try,try,try,pick,drop,hungry,try,try,try,try,try,try,pick,eat,drop,drop,think,hungry,try,try,pick,drop,hungry,try,pick,drop,hungry,try,pick,eat,drop,drop,think,hungry,try,try,try,try,pick,eat,drop,drop,think,hungry,try,try,try,pick,eat,drop,drop,think,hungry,try,try,try,try,pick,eat,drop
think,hungry,try,try,try,try,try,try,try,pick,eat,drop,drop,think,hungry,try,try,try,pick,eat,drop,drop,think,hungry,try,try,try,pick,eat,drop,drop,think,hungry,try,try,pick,eat,drop,drop,think,hungry,try,try,try,pick,eat,drop,drop,think,hungry,try,try,pick,eat,drop,drop,think,hungry,try,try
think,hungry,try,pick,drop,hungry,try,try,try,try,try,try,pick,eat,drop,drop,think,hungry,try,try,try,pick,eat,drop,drop,think,hungry,try,try,try,pick,eat,drop,drop,think,hungry,try,try,try,pick,eat,drop,drop,think,hungry,try,try,try,pick,eat,drop,drop,think,hungry,try,try,pick,eat,drop,drop,think,hungry,try,try,try,pick
think,hungry,try,pick,drop,hungry,try,try,try,pick,drop,hungry,try,pick,eat,drop,drop,think,hungry,try,try,try,pick,eat,drop,drop,think,hungry,try,try,try,pick,eat,drop,drop,think,hungry,try,try,try,pick,eat,drop,drop,think,hungry,try,try,pick,eat,drop,drop,think,hungry,try,try,try,pick,eat,drop,drop,think,hungry
think,hungry,try,pick,drop,hungry,try,try,try,try,pick,eat,drop,drop,think,hungry,try,try,pick,drop,hungry,try,pick,drop,hungry,try,pick,eat,drop,drop,think,hungry,try,try,try,pick,eat,drop,drop,think,hungry,try,try,pick,eat,drop,drop,think,hungry,try,try,try,try,pick,eat,drop,drop,think,hungry,try,try,try,pick
think,hungry,try,try,try,try,try,try,try,try,pick,drop,hungry,try,pick,drop,hungry,try,try,try,try,try,pick,drop,hungry,try,try,pick,drop,hungry,try,pick,eat,drop,drop,think,hungry,try,try,pick,drop,hungry,try,pick,eat,drop,drop,think,hungry,try,try,pick,drop,hungry,try,pick,eat,drop,drop,think,hungry,try,try,pick,eat,drop
think,hungry,try,pick,drop,hungry,try,try,try,try,try,try,pick,drop,hungry,try,try,try,try,try,try,try,try,pick,drop,hungry,try,try,try,try,try,try,try,try,pick,eat,drop,drop,think,hungry,try,try,pick,eat,drop,drop,think,hungry,try,try,pick,drop,hungry,try,pick,eat,drop,drop,think,hungry,try,try,pick
think,hungry,try,pick,drop,hungry,try,try,try,try,try,try,try,try,try,pick,drop,hungry,try,pick,drop,hungry,try,try,try,try,try,pick,eat,drop,drop,think,hungry,try,try,try,pick,eat,drop,drop,think,hungry,try,try,try,pick,eat,drop,drop,think,hungry,try,try,pick,eat,drop,drop,think,hungry,try,try,try,try,pick,eat
think,hungry,try,try,try,try,try,try,try,try,try,pick,drop,hungry,try,try,try,try,try,try,try,try,pick,eat,drop,drop,think,hungry,try,try,pick,drop,hungry,try,try,try,try,try,pick,drop,hungry,try,try,try,try,try,try,pick,drop,hungry,try,try,try,try,try,try,try,pick,eat,drop,drop,think,hungry,try,try,try,pick
think,hungry,try,try,try,try,try,try,try,pick,drop,hungry,try,pick,eat,drop,drop,think,hungry,try,pick,drop,hungry,try,pick,eat,drop,drop,think,hungry,try,try,try,pick,eat,drop,drop,think,hungry,try,try,try,try,try,try,try,pick,eat,drop,drop,think,hungry,try,try,try,try,try,try,pick,eat,drop,drop,think,hungry,try,try,try,pick,drop,hungry,try,pick
think,hungry,try,pick,drop,hungry,try,try,pick,drop,hungry,try,try,try,try,try,pick,drop,hungry,try,try,try,try,try,try,try,pick,eat,drop,drop,think,hungry,try,try,try,pick,eat,drop,drop,think,hungry,try,try,try,pick,eat,drop,drop,think,hungry,try,try,try,pick,eat,drop,drop,think,hungry,try,try,pick,eat,drop,drop,think,hungry,try
think,hungry,try,try,try,try,try,try,try,try,try,try,try,try,try,try,try,pick,drop,hungry,try,try,try,pick,drop,hungry,try,try,try,try,try,try,pick,drop,hungry,try,pick,drop,hungry,try,pick,eat,drop,drop,think,hungry,try,try,pick,eat,drop,drop,think,hungry,try,try,pick,eat,drop,drop,think,hungry,try,try,try
think,hungry,try,pick,eat,drop,drop,think,hungry,try,try,pick,drop,hungry,try,try,try,try,try,try,try,try,try,try,pick,drop,hungry,try,pick,eat,drop,drop,think,hungry,try,try,try,pick,eat,drop,drop,think,hungry,try,try,try,pick,eat,drop,drop,think,hungry,try,try,try,pick,eat,drop,drop,think,hungry,try,pick
think,hungry,try,pick,drop,hungry,try,try,try,try,try,pick,eat,drop,drop,think,hungry,try,pick,drop,hungry,try,pick,eat,drop,drop,think,hungry,try,try,pick,eat,drop,drop,think,hungry,try,try,try,try,pick,eat,drop,drop,think,hungry,try,try,try,pick,eat,drop,drop,think,hungry,try,try,try,try,pick,drop,hungry,try,try,try,try,pick,drop
think,hungry,try,pick,drop,hungry,try,try,try,try,pick,eat,drop,drop,think,hungry,try,pick,drop,hungry,try,pick,eat,drop,drop,think,hungry,try,try,try,pick,eat,drop,drop,think,hungry,try,pick,drop,hungry,try,pick,drop,hungry,try,pick,eat,drop,drop,think,hungry,try,try,try,pick,eat,drop,drop,think,hungry,try
think,hungry,try,pick,drop,hungry,try,pick,drop,hungry,try,try,try,try,pick,drop,hungry,try,try,try,try,try,pick,eat,drop,drop,think,hungry,try,try,try,pick,eat,drop,drop,think,hungry,try,try,try,try,pick,eat,drop,drop,think,hungry,try,try,try,pick,eat,drop,drop,think,hungry,try,try,try,pick,eat,drop,drop,think,hungry,try
think,hungry,try,pick,eat,drop,drop,think,hungry,try,try,try,try,try,try,try,try,try,try,try,try,try,try,pick,eat,drop,drop,think,hungry,try,try,try,try,try,try,pick,drop,hungry,try,pick,eat,drop,drop,think,hungry,try,try,try,pick,drop,hungry,try,pick,drop,hungry,try,pick,eat,drop,drop,think,hungry,try,try,pick,eat,drop,drop,think
think,hungry,try,pick,drop,hungry,try,try,try,try,try,try,try,try,try,try,try,try,try,pick,drop,hungry,try,pick,drop,hungry,try,try,pick,drop,hungry,try,pick,drop,hungry,try,pick,drop,hungry,try,pick,drop,hungry,try,pick,drop,hungry,try,try,try,pick,drop,hungry,try,try,try,pick,drop,hungry,try,pick,eat,drop,drop,think,hungry,try,try,try,try,pick
think,hungry,try,pick,drop,hungry,try,try,try,pick,eat,drop,drop,think,hungry,try,try,try,pick,eat,drop,drop,think,hungry,try,try,pick,eat,drop,drop,think,hungry,try,try,try,pick,eat,drop,drop,think,hungry,try,try,pick,eat,drop,drop,think,hungry,try,try,try,pick,eat,drop,drop,think,hungry,try,try,try,pick,eat
think,hungry,try,pick,drop,hungry,try,try,try,try,try,try,pick,drop,hungry,try,try,try,try,try,try,pick,drop,hungry,try,try,try,try,try,try,pick,drop,hungry,try,pick,eat,drop,drop,think,hungry,try,try,pick,eat,drop,drop,think,hungry,try,try,try,pick,eat,drop,drop,think,hungry,try,try,pick,eat,drop,drop
think,hungry,try,pick,drop,hungry,try,try,pick,eat,drop,drop,think,hungry,try,pick,eat,drop,drop,think,hungry,try,pick,drop,hungry,try,pick,eat,drop,drop,think,hungry,try,try,pick,drop,hungry,try,try,try,pick,drop,hungry,try,pick,eat,drop,drop,think,hungry,try,try,try,pick,eat,drop,drop,think,hungry,try,try,try,pick,eat,drop,drop,think,hungry,try,try,pick,eat,drop
think,hungry,try,try,try,try,try,try,try,try,try,try,try,try,try,try,try,try,try,try,try,try,try,try,try,pick,eat,drop,drop,think,hungry,try,try,pick,eat,drop,drop,think,hungry,try,try,pick,eat,drop,drop,think,hungry,try,try,try,try,pick,eat,drop,drop,think,hungry,try,try,pick,eat,drop,drop,think,hungry,try,try,pick
think,hungry,try,pick,drop,hungry,try,try,try,try,try,try,try,try,try,try,pick,drop,hungry,try,pick,drop,hungry,try,try,try,try,try,pick,eat,drop,drop,think,hungry,try,try,try,try,try,pick,eat,drop,drop,think,hungry,try,try,try,try,pick,drop,hungry
think,hungry,try,try,try,try,try,try,pick,eat,drop,drop,think,hungry,try,try,try,pick,eat,drop,drop,think,hungry,try,pick,drop,hungry,try,pick,eat,drop,drop,think,hungry,try,try,pick,drop,hungry,try,try,try,try,try,pick,drop,hungry,try,try,try,try,try,try,pick,drop,hungry,try,try,pick,eat,drop,drop,think
think,hungry,try,try,try,try,try,pick,drop,hungry,try,try,try,try,try,try,try,pick,eat,drop,drop,think,hungry,try,try,pick,drop,hungry,try,try,try,try,pick,drop,hungry,try,pick,eat,drop,drop,think,hungry,try,try,pick,eat,drop,drop,think,hungry,try,try,try,pick,eat,drop,drop,think,hungry,try,try,try,pick,eat,drop,drop,think,hungry,try
think,hungry,try,try,try,try,try,pick,eat,drop,drop,think,hungry,try,pick,drop,hungry,try,pick,eat,drop,drop,think,hungry,try,pick,eat,drop,drop,think,hungry,try,try,pick,drop,hungry,try,pick,eat,drop,drop,think,hungry,try,try,try,pick,eat,drop,drop,think,hungry,try,try,pick,eat,drop,drop,think,hungry,try,try
think,hungry,try,pick,eat,drop,drop,think,hungry,try,try,try,try,try,try,try,try,try,try,try,try,try,try,try,pick,drop,hungry,try,pick,eat,drop,drop,think,hungry,try,try,pick,drop,hungry,try,try,try,try,try,pick,eat,drop,drop,think,hungry,try,try,try,pick,eat,drop,drop,think,hungry,try,try,try,pick,eat,drop
think,hungry,try,pick,eat,drop,drop,think,hungry,try,try,try,try,pick,eat,drop,drop,think,hungry,try,try,pick,eat,drop,drop,think,hungry,try,try,try,try,pick,eat,drop,drop,think,hungry,try,try,try,pick,eat,drop,drop,think,hungry,try,try,pick,eat,drop,drop,think,hungry,try,try,try,pick,drop,hungry,try,pick
think,hungry,try,pick,eat,drop,drop,think,hungry,try,pick,eat,drop,drop,think,hungry,try,try,pick,eat,drop,drop,think,hungry,try,try,try,try,try,pick,eat,drop,drop,think,hungry,try,try,try,pick,eat,drop,drop,think,hungry,try,try,try,pick,eat,drop,drop,think,hungry,try,try,pick,eat,drop,drop,think
think,hungry,try,pick,eat,drop,drop,think,hungry,try,try,pick,eat,drop,drop,think,hungry,try,try,pick,eat,drop,drop,think,hungry,try,try,pick,eat,drop,drop,think,hungry,try,try,try,pick,eat,drop,drop,think,hungry,try,try,try,try,pick,eat,drop,drop,think,hungry,try,try,try,try,try,try,try,pick,drop,hungry,try,pick
