think,hungry,try,pick,drop,hungry,try,try,pick,drop,hungry,try,try,try,pick,drop,hungry,try,try,try,try,try,try,try,pick,drop,hungry,try,pick,drop,hungry,try,try,try,try,try,try,pick,drop,hungry,try,pick,drop,hungry,try,pick,drop,hungry,try,try,try,try,try,try,pick,drop,hungry,try,try,try,try,try,try,pick,drop,hungry,try,pick,eat,drop,drop,think,hungry,try,try,pick,drop,hungry,try,pick,drop,hungry,try,try,pick,drop,hungry,try,pick,drop,hungry,try,pick,drop,hungry,try,try,try,pick,eat,drop,drop,think,hungry,try,pick,eat,drop,drop,think,hungry,try,pick,drop,hungry,try,try,try,try,pick,drop,hungry,try,try,try,pick,drop,hungry,try,pick,drop,hungry,try,pick,eat,drop,drop,think,hungry,try,pick,eat,drop,drop,think,hungry,try,try,pick,drop,hungry,try,pick,drop,hungry,try,try,pick,drop,hungry,try,pick,eat,drop,drop,think,hungry,try,pick,eat,drop,drop,think,hungry,try,pick,eat,drop,drop,think,hungry,try,try,try,pick,eat,drop,drop,think,hungry,try,try,pick,drop,hungry,try,pick,eat,drop,drop,think,hungry,try,try,pick,eat,drop,drop,think,hungry,try,try,pick,drop,hungry,try,try,try,try,try,try,pick,drop,hungry,try,pick,drop,hungry,try,try,pick,drop,hungry,try,pick,eat,drop,drop,think,hungry,try,try,pick,drop,hungry,try,pick,drop,hungry,try,try,pick,drop,hungry,try,pick,drop,hungry,try,pick,eat,drop,drop,think,hungry,try,try,pick,eat,drop,drop,think,hungry,try,pick,eat,drop,drop,think,hungry,try,pick,eat,drop,drop,think,hungry,try,pick,eat,drop,drop,think,hungry,try,try,pick,eat,drop,drop,think,hungry,try,try,try,try,pick,drop,hungry,try,try,try,try,pick,eat,drop,drop,think,hungry,try,try,try,try,pick,drop,hungry,try,try,try,try,pick,eat,drop,drop,think,hungry,try,try,pick,drop,hungry,try,pick,drop,hungry,try,try,try,try,pick,drop,hungry,try,pick,drop,hungry,try,pick,eat,drop,drop,think,hungry,try,pick,eat,drop,drop,think,hungry,try,try,try,try,try,try,try,try,pick,drop,hungry,try,pick,drop,hungry,try,pick,eat,drop,drop,think,hungry,try,pick,eat,drop,drop,think,hungry,try,try,try,pick
think,hungry,try,pick,drop,hungry,try,try,try,try,pick,drop,hungry,try,pick,drop,hungry,try,pick,drop,hungry,try,pick,eat,drop,drop,think,hungry,try,try,pick,drop,hungry,try,try,try,try,try,pick,drop,hungry,try,try,try,try,try,try,pick,drop,hungry,try,try,try,try,try,try,pick,drop,hungry,try,try,try,try,try,try,pick,drop,hungry,try,try,try,try,try,try,try,pick,drop,hungry,try,pick,drop,hungry,try,pick,drop,hungry,try,pick,drop,hungry,try,try,try,try,try,pick,drop,hungry,try,try,try,try,try,pick,drop,hungry,try,try,try,try,try,pick,eat,drop,drop,think,hungry,try,try,try,try,try,pick,drop,hungry,try,try,try,try,try,try,pick,eat,drop,drop,think,hungry,try,pick,drop,hungry,try,try,try,try,pick,drop,hungry,try,try,try,try,try,pick,eat,drop,drop,think,hungry,try,pick,eat,drop,drop,think,hungry,try,try,try,pick,eat,drop,drop,think,hungry,try,try,try,try,pick,drop,hungry,try,try,try,pick,drop,hungry,try,pick,eat,drop,drop,think,hungry,try,try,pick,drop,hungry,try,pick,eat,drop,drop,think,hungry,try,pick,drop,hungry,try,try,try,try,try,try,try,pick,drop,hungry,try,pick,eat,drop,drop,think,hungry,try,try,pick,drop,hungry,try,pick,eat,drop,drop,think,hungry,try,try,pick,drop,hungry,try,pick,drop,hungry,try,try,try,pick,drop,hungry,try,try,try,try,try,try,pick,drop,hungry,try,try,try,try,try,try,try,pick,drop,hungry,try,pick,eat,drop,drop,think,hungry,try,try,pick,drop,hungry,try,pick,eat,drop,drop,think,hungry,try,pick,eat,drop,drop,think,hungry,try,try,pick,eat,drop,drop,think,hungry,try,try,pick,drop,hungry,try,try,try,try,try,try,pick,drop,hungry,try,pick,drop,hungry,try,try,try,try,try,pick,drop,hungry,try,try,pick,drop,hungry,try,pick,eat,drop,drop,think,hungry,try,pick,drop,hungry,try,try,try,pick,drop,hungry,try,try,try,try,try,pick,eat,drop,drop,think,hungry,try,try,pick,drop,hungry,try,pick,eat,drop,drop,think,hungry,try,try,try,try,try,pick,eat,drop,drop,think,hungry,try,try,try,pick,drop,hungry,try,try,try,try,try,try,pick,drop,hungry,try,try,try,try,try,try,pick,drop,hungry,try,try,try,try,try,try,try,pick,drop
think,hungry,try,pick,drop,hungry,try,try,try,try,try,try,try,try,try,try,try,try,try,try,try,try,try,try,try,try,try,try,try,try,try,try,try,try,try,try,pick,drop,hungry,try,pick,drop,hungry,try,pick,drop,hungry,try,pick,drop,hungry,try,pick,drop,hungry,try,pick,drop
